{
    "item_type": {
        "data_type": "string",
        "display_name": "Item Type",
        "group_name": "General",
        "visible": true,
        "searchable": true,
        "typeahead": false
    },
    "news_source": {
        "data_type": "string",
        "display_name": "News Source",
        "group_name": "News",
        "visible": true,
        "searchable": true,
        "typeahead": true
    },
    "section": {
        "data_type": "string",
        "display_name": "News Section",
        "group_name": "News",
        "visible": true,
        "searchable": false,
        "typeahead": true
    },
    "category": {
        "data_type": "string",
        "display_name": "News Category",
        "delimiter": "|",
        "group_name": "News",
        "visible": true,
        "searchable": true,
        "typeahead": true
        
    },
    "description": {
        "data_type": "string",
        "group_name": "News",
        "visible": false,
        "searchable": true,
        "typeahead": false
    }
}
